let s11=ac1.s22
let s21=ac1.s12
settype s-param S11 S21 S22 S12

let S11db = db(s11)
let S12db = db(s12)ssad
let S21db = db(s21)
let S22db = db(s22)
settype decibel S11db S21db S22db S12db

let P11=180*ph(s11)/pi
let P21=180*ph(s21)/pi
let P22=180*ph(S22)/pi
let P12=180*ph(S12)/pi
settype phase P11 P21 P22 P12

let Rbase=@R.X1.R4[Resistance]
settype impedance Rbase
plot s11db s21db S22db S12db ylimit -0.5 0 $ used with Tschebyschef  
plot P11 P21 P22 P12
plot smithgrid S11 S12
wrs2p s3046.s2p $ write touchstone vers. 1 file s3046.s2p
.endc

.end